USER         PID %CPU %MEM    VSZ   RSS TTY      STAT START   TIME COMMAND
root           1  0.0  0.1  19096 11444 ?        Ss   12:42   0:00 /sbin/init
root           2  0.0  0.0      0     0 ?        S    12:42   0:00 [kthreadd]
root           3  0.0  0.0      0     0 ?        I<   12:42   0:00 [rcu_gp]
root           4  0.0  0.0      0     0 ?        I<   12:42   0:00 [rcu_par_gp]
root           6  0.0  0.0      0     0 ?        I<   12:42   0:00 [kworker/0:0H-events_highpri]
root           8  0.0  0.0      0     0 ?        I<   12:42   0:00 [mm_percpu_wq]
root          10  0.0  0.0      0     0 ?        S    12:42   0:00 [rcu_tasks_kthre]
root          11  0.0  0.0      0     0 ?        S    12:42   0:00 [rcu_tasks_rude_]
root          12  0.0  0.0      0     0 ?        S    12:42   0:00 [rcu_tasks_trace]
root          13  0.0  0.0      0     0 ?        S    12:42   0:00 [ksoftirqd/0]
root          14  0.0  0.0      0     0 ?        I    12:42   0:01 [rcu_preempt]
root          15  0.0  0.0      0     0 ?        S    12:42   0:00 [rcub/1]
root          16  0.0  0.0      0     0 ?        S    12:42   0:00 [rcuc/0]
root          17  0.0  0.0      0     0 ?        S    12:42   0:00 [migration/0]
root          18  0.0  0.0      0     0 ?        S    12:42   0:00 [idle_inject/0]
root          20  0.0  0.0      0     0 ?        S    12:42   0:00 [cpuhp/0]
root          21  0.0  0.0      0     0 ?        S    12:42   0:00 [cpuhp/1]
root          22  0.0  0.0      0     0 ?        S    12:42   0:00 [idle_inject/1]
root          23  0.0  0.0      0     0 ?        S    12:42   0:00 [migration/1]
root          24  0.0  0.0      0     0 ?        S    12:42   0:00 [rcuc/1]
root          25  0.0  0.0      0     0 ?        S    12:42   0:00 [ksoftirqd/1]
root          27  0.0  0.0      0     0 ?        I<   12:42   0:00 [kworker/1:0H-events_highpri]
root          28  0.0  0.0      0     0 ?        S    12:42   0:00 [cpuhp/2]
root          29  0.0  0.0      0     0 ?        S    12:42   0:00 [idle_inject/2]
root          30  0.0  0.0      0     0 ?        S    12:42   0:00 [migration/2]
root          31  0.0  0.0      0     0 ?        S    12:42   0:00 [rcuc/2]
root          32  0.1  0.0      0     0 ?        S    12:42   0:04 [ksoftirqd/2]
root          34  0.0  0.0      0     0 ?        I<   12:42   0:00 [kworker/2:0H-kblockd]
root          35  0.0  0.0      0     0 ?        S    12:42   0:00 [cpuhp/3]
root          36  0.0  0.0      0     0 ?        S    12:42   0:00 [idle_inject/3]
root          37  0.0  0.0      0     0 ?        S    12:42   0:00 [migration/3]
root          38  0.0  0.0      0     0 ?        S    12:42   0:00 [rcuc/3]
root          39  0.1  0.0      0     0 ?        S    12:42   0:02 [ksoftirqd/3]
root          41  0.0  0.0      0     0 ?        I<   12:42   0:00 [kworker/3:0H-events_highpri]
root          42  0.0  0.0      0     0 ?        S    12:42   0:00 [kdevtmpfs]
root          43  0.0  0.0      0     0 ?        I<   12:42   0:00 [netns]
root          44  0.0  0.0      0     0 ?        I<   12:42   0:00 [inet_frag_wq]
root          45  0.0  0.0      0     0 ?        S    12:42   0:00 [kauditd]
root          47  0.2  0.0      0     0 ?        I    12:42   0:05 [kworker/1:1-mm_percpu_wq]
root          49  0.0  0.0      0     0 ?        S    12:42   0:00 [khungtaskd]
root          50  0.0  0.0      0     0 ?        S    12:42   0:00 [oom_reaper]
root          51  0.0  0.0      0     0 ?        I<   12:42   0:00 [writeback]
root          52  0.0  0.0      0     0 ?        S    12:42   0:00 [kcompactd0]
root          53  0.0  0.0      0     0 ?        SN   12:42   0:00 [ksmd]
root          54  0.0  0.0      0     0 ?        SN   12:42   0:00 [khugepaged]
root          99  0.0  0.0      0     0 ?        I<   12:42   0:00 [kintegrityd]
root         100  0.0  0.0      0     0 ?        I<   12:42   0:00 [kblockd]
root         101  0.0  0.0      0     0 ?        I<   12:42   0:00 [blkcg_punt_bio]
root         102  0.0  0.0      0     0 ?        I<   12:42   0:00 [ata_sff]
root         103  0.0  0.0      0     0 ?        I<   12:42   0:00 [edac-poller]
root         104  0.0  0.0      0     0 ?        I<   12:42   0:00 [devfreq_wq]
root         105  0.0  0.0      0     0 ?        S    12:42   0:00 [watchdogd]
root         106  0.0  0.0      0     0 ?        I<   12:42   0:00 [kworker/0:1H-kblockd]
root         107  0.0  0.0      0     0 ?        S    12:42   0:00 [irq/25-AMD-Vi]
root         108  0.0  0.0      0     0 ?        S    12:42   0:00 [kswapd0]
root         110  0.0  0.0      0     0 ?        I<   12:42   0:00 [kthrotld]
root         111  0.1  0.0      0     0 ?        I    12:42   0:04 [kworker/3:1-events]
root         112  0.0  0.0      0     0 ?        I<   12:42   0:00 [acpi_thermal_pm]
root         115  0.0  0.0      0     0 ?        I    12:42   0:00 [kworker/0:4-events]
root         118  0.0  0.0      0     0 ?        I<   12:42   0:00 [amd_iommu_v2]
root         119  0.0  0.0      0     0 ?        I<   12:42   0:00 [nvme-wq]
root         120  0.0  0.0      0     0 ?        I<   12:42   0:00 [nvme-reset-wq]
root         121  0.0  0.0      0     0 ?        I<   12:42   0:00 [nvme-delete-wq]
root         122  0.0  0.0      0     0 ?        S    12:42   0:00 [scsi_eh_0]
root         123  0.0  0.0      0     0 ?        I<   12:42   0:00 [scsi_tmf_0]
root         124  0.0  0.0      0     0 ?        S    12:42   0:00 [scsi_eh_1]
root         125  0.0  0.0      0     0 ?        I<   12:42   0:00 [scsi_tmf_1]
root         126  0.0  0.0      0     0 ?        S    12:42   0:00 [scsi_eh_2]
root         127  0.0  0.0      0     0 ?        I<   12:42   0:00 [scsi_tmf_2]
root         128  0.0  0.0      0     0 ?        S    12:42   0:00 [scsi_eh_3]
root         129  0.0  0.0      0     0 ?        I<   12:42   0:00 [scsi_tmf_3]
root         130  0.0  0.0      0     0 ?        S    12:42   0:00 [scsi_eh_4]
root         131  0.0  0.0      0     0 ?        I<   12:42   0:00 [scsi_tmf_4]
root         132  0.0  0.0      0     0 ?        S    12:42   0:00 [scsi_eh_5]
root         133  0.0  0.0      0     0 ?        I<   12:42   0:00 [scsi_tmf_5]
root         134  0.0  0.0      0     0 ?        S    12:42   0:00 [scsi_eh_6]
root         135  0.0  0.0      0     0 ?        I<   12:42   0:00 [scsi_tmf_6]
root         136  0.0  0.0      0     0 ?        S    12:42   0:00 [scsi_eh_7]
root         137  0.0  0.0      0     0 ?        I<   12:42   0:00 [scsi_tmf_7]
root         144  0.0  0.0      0     0 ?        S    12:42   0:00 [scsi_eh_8]
root         145  0.0  0.0      0     0 ?        I<   12:42   0:00 [scsi_tmf_8]
root         147  0.0  0.0      0     0 ?        I<   12:42   0:00 [mld]
root         148  0.0  0.0      0     0 ?        I<   12:42   0:00 [ipv6_addrconf]
root         158  0.0  0.0      0     0 ?        I<   12:42   0:00 [kstrp]
root         159  0.0  0.0      0     0 ?        I<   12:42   0:00 [zswap1]
root         160  0.0  0.0      0     0 ?        I<   12:42   0:00 [zswap1]
root         161  0.0  0.0      0     0 ?        I<   12:42   0:00 [zswap-shrink]
root         164  0.0  0.0      0     0 ?        I<   12:42   0:00 [kworker/u65:0]
root         165  0.0  0.0      0     0 ?        I<   12:42   0:00 [charger_manager]
root         176  0.0  0.0      0     0 ?        I<   12:42   0:00 [kworker/1:1H-kblockd]
root         190  0.0  0.0      0     0 ?        I<   12:42   0:00 [kworker/3:1H-kblockd]
root         196  0.0  0.0      0     0 ?        S    12:42   0:00 [scsi_eh_9]
root         197  0.0  0.0      0     0 ?        I<   12:42   0:00 [scsi_tmf_9]
root         198  0.1  0.0      0     0 ?        S    12:42   0:04 [usb-storage]
root         199  0.0  0.0      0     0 ?        I<   12:42   0:00 [uas]
root         200  0.0  0.0      0     0 ?        S    12:42   0:00 [scsi_eh_10]
root         201  0.0  0.0      0     0 ?        I<   12:42   0:00 [scsi_tmf_10]
root         202  0.0  0.0      0     0 ?        S    12:42   0:00 [usb-storage]
root         205  0.0  0.0      0     0 ?        I<   12:42   0:00 [kworker/2:1H-kblockd]
root         212  0.0  0.0      0     0 ?        S    12:42   0:00 [jbd2/sdb2-8]
root         213  0.0  0.0      0     0 ?        I<   12:42   0:00 [ext4-rsv-conver]
root         245  0.0  0.2  32616 13180 ?        Ss   12:42   0:00 /usr/lib/systemd/systemd-journald
root         255  0.0  0.1  33192 10784 ?        Ss   12:42   0:00 /usr/lib/systemd/systemd-udevd
root         281  0.0  0.0      0     0 ?        I<   12:42   0:00 [cryptd]
root         294  0.0  0.0      0     0 ?        S    12:42   0:00 [ccp-1-q2]
root         296  0.0  0.0      0     0 ?        S    12:42   0:00 [ccp-1-q3]
root         297  0.0  0.0      0     0 ?        S    12:42   0:00 [ccp-1-q4]
root         317  0.0  0.0      0     0 ?        S    12:42   0:00 [gfx]
root         318  0.0  0.0      0     0 ?        S    12:42   0:00 [comp_1.0.0]
root         319  0.0  0.0      0     0 ?        S    12:42   0:00 [comp_1.1.0]
root         320  0.0  0.0      0     0 ?        S    12:42   0:00 [comp_1.2.0]
root         321  0.0  0.0      0     0 ?        S    12:42   0:00 [comp_1.3.0]
root         322  0.0  0.0      0     0 ?        S    12:42   0:00 [comp_1.0.1]
root         323  0.0  0.0      0     0 ?        S    12:42   0:00 [comp_1.1.1]
root         324  0.0  0.0      0     0 ?        S    12:42   0:00 [comp_1.2.1]
root         325  0.0  0.0      0     0 ?        S    12:42   0:00 [comp_1.3.1]
root         326  0.0  0.0      0     0 ?        S    12:42   0:00 [sdma0]
root         327  0.0  0.0      0     0 ?        S    12:42   0:00 [vcn_dec]
root         328  0.0  0.0      0     0 ?        S    12:42   0:00 [vcn_enc0]
root         329  0.0  0.0      0     0 ?        S    12:42   0:00 [vcn_enc1]
root         330  0.0  0.0      0     0 ?        S    12:42   0:00 [jpeg_dec]
root         331  0.0  0.0      0     0 ?        I<   12:42   0:00 [dm_vblank_contr]
root         332  0.0  0.0      0     0 ?        S    12:42   0:00 [card0-crtc0]
root         333  0.0  0.0      0     0 ?        S    12:42   0:00 [card0-crtc1]
root         334  0.0  0.0      0     0 ?        S    12:42   0:00 [card0-crtc2]
root         335  0.0  0.0      0     0 ?        S    12:42   0:00 [card0-crtc3]
dbus         340  0.0  0.0  13736  5784 ?        Ss   12:42   0:00 /usr/bin/dbus-daemon --system --address=systemd: --nofork --nopidfile --systemd-activation --syslog-only
root         341  0.0  0.1 442700  8168 ?        Ss   12:42   0:00 /usr/lib/systemd/systemd-logind
root         345  0.0  0.1  12832  6372 ?        Ss   12:42   0:00 login -- root
root         360  0.0  0.1  18180 10108 ?        Ss   12:53   0:00 /usr/lib/systemd/systemd --user
root         361  0.0  0.0  22756  2724 ?        S    12:53   0:00 (sd-pam)
root         368  0.0  0.0   4508  3684 tty1     Ss   12:53   0:00 -bash
root         376  0.0  0.0      0     0 ?        I    12:57   0:00 [kworker/2:0-events]
root         382  0.2  0.0      0     0 ?        S    13:00   0:03 [jbd2/sda3-8]
root         383  0.0  0.0      0     0 ?        I<   13:00   0:00 [ext4-rsv-conver]
root         391  0.0  0.0      0     0 ?        S    13:00   0:00 [jbd2/sda2-8]
root         392  0.0  0.0      0     0 ?        I<   13:00   0:00 [ext4-rsv-conver]
root         398  0.0  0.0      0     0 ?        I    13:01   0:00 [kworker/u64:0-events_unbound]
root         581  0.0  0.0      0     0 ?        I    13:23   0:00 [kworker/1:0-events]
root         589  0.0  0.0   1872   932 tty1     S+   13:24   0:00 /mnt/usr/local/bin/nconfig pacstrap
root         626  0.0  0.0 151932   836 ?        Ss   13:24   0:00 gpg-agent --homedir /etc/pacman.d/gnupg --use-standard-socket --daemon
root         763  0.0  0.0   4428  3640 tty1     S+   13:25   0:00 /bin/bash /usr/bin/pacstrap -i . base dhcpcd linux linux-firmware gcc make
root         776  0.0  0.0   2400   748 tty1     S+   13:25   0:00 unshare --fork --pid pacman -r . -Sy base dhcpcd linux linux-firmware gcc make --cachedir=./var/cache/pacman/pkg
root         777  7.9  0.6 120268 40180 tty1     S+   13:25   0:12 pacman -r . -Sy base dhcpcd linux linux-firmware gcc make --cachedir=./var/cache/pacman/pkg
root         783  0.0  0.1  12832  6428 ?        Ss   13:27   0:00 login -- root
root         784  0.0  0.0   4508  3676 tty2     Ss   13:27   0:00 -bash
root         786  0.0  0.0      0     0 ?        I    13:27   0:00 [kworker/u64:1-events_power_efficient]
root         789  0.0  0.0   7168  3032 tty2     R+   13:27   0:00 ps aux



